{
    "env": "dev",
    "db_host": "localhost",    
    "db_port": "3306",
    "username": "root",
    "pwd": "root",
    "database": "tytodynamic",
    "tablename": "apitomic",
    "allowedOrigins": [
        "http://localhost:80",
        "http://localhost:81"
    ],
    "namespace":"apitomic",
    "showReactor":true,
    "key": "eyJ0eXAiOiJKV1QiLCJhbGciOiJIUzI1NiJ9.eyJpc3MiOiJodHRwOlwvXC9sb2NhbGhvc3Q6ODEiLCJhdWQiOiJodHRwOlwvXC9sb2NhbGhvc3Q6ODEiLCJpYXQiOjE1NzE1NTE0MTYsIm5iZiI6MTU3MTU1MTQxNiwiZXhwIjoxNTcxNTUyMDE2LCJkYXRhIjp7ImlkIjoiMTFjYzhhNTI1OGMwMzliY2Y5NGM0ZDMzMTU5MWZmZWEiLCJ1c2VybmFtZSI6InJvb3QifX0.2jqP4cGBpO3Aq-_Vfbbs3uczzbk3btwt1Y-D02uvJSg"
}